<?xml version="1.0" encoding="UTF-8" standalone="no"?>
<svg
   xmlns:dc="http://purl.org/dc/elements/1.1/"
   xmlns:cc="http://creativecommons.org/ns#"
   xmlns:rdf="http://www.w3.org/1999/02/22-rdf-syntax-ns#"
   xmlns:svg="http://www.w3.org/2000/svg"
   xmlns="http://www.w3.org/2000/svg"
   xmlns:sodipodi="http://sodipodi.sourceforge.net/DTD/sodipodi-0.dtd"
   xmlns:inkscape="http://www.inkscape.org/namespaces/inkscape"
   version="1.2"
   width="187mm"
   height="169.96635mm"
   viewBox="0 0 18700 16996.636"
   preserveAspectRatio="xMidYMid"
   clip-path="url(#presentation_clip_path)"
   xml:space="preserve"
   id="svg9139"
   sodipodi:docname="room_setup_video.svg"
   inkscape:version="0.92.3pre0 (0ab9bec, 2018-03-03)"
   style="fill-rule:evenodd;stroke-width:28.22200012;stroke-linejoin:round"><metadata
   id="metadata9143"><rdf:RDF><cc:Work
       rdf:about=""><dc:format>image/svg+xml</dc:format><dc:type
         rdf:resource="http://purl.org/dc/dcmitype/StillImage" /><dc:title></dc:title></cc:Work></rdf:RDF></metadata><sodipodi:namedview
   pagecolor="#ffffff"
   bordercolor="#666666"
   borderopacity="1"
   objecttolerance="10"
   gridtolerance="10"
   guidetolerance="10"
   inkscape:pageopacity="0"
   inkscape:pageshadow="2"
   inkscape:window-width="1366"
   inkscape:window-height="703"
   id="namedview9141"
   showgrid="false"
   inkscape:zoom="0.35355339"
   inkscape:cx="-176.94189"
   inkscape:cy="238.66935"
   inkscape:window-x="0"
   inkscape:window-y="0"
   inkscape:window-maximized="1"
   inkscape:current-layer="svg9139"
   fit-margin-top="0"
   fit-margin-left="0"
   fit-margin-right="0"
   fit-margin-bottom="0" /><defs
   class="ClipPathGroup"
   id="defs6837"><clipPath
     id="presentation_clip_path"
     clipPathUnits="userSpaceOnUse"><rect
       x="0"
       y="0"
       width="21000"
       height="29700"
       id="rect6834" /></clipPath></defs><defs
   id="defs6972" /><defs
   class="TextShapeIndex"
   id="defs6976" /><defs
   class="EmbeddedBulletChars"
   id="defs7005" /><defs
   class="TextEmbeddedBitmaps"
   id="defs7007" /><g
   id="g7012"
   transform="translate(-1400,-1378.6602)"><g
     id="id2"
     class="Master_Slide"><g
       id="bg-id2"
       class="Background" /><g
       id="bo-id2"
       class="BackgroundObjects" /></g></g><g
   id="id1"
   class="Slide"
   clip-path="url(#presentation_clip_path)"
   transform="translate(-1400,-1378.6602)"><g
   class="Page"
   id="g9132"><g
     class="com.sun.star.drawing.OpenBezierShape"
     id="g7127"
     transform="translate(0,-6297.0867)"><g
       id="id23"><path
         d="m 4000,18700 c 260,40 396,335 624,462 205,115 421,268 645,232 220,-37 427,-176 625,-309 l 208,-102 145,-103"
         id="path7124"
         inkscape:connector-curvature="0"
         style="fill:none;stroke:#00cc33;stroke-width:20;stroke-linejoin:round" /></g></g><g
     class="com.sun.star.drawing.CustomShape"
     id="g7134"><g
       id="id24" /></g><g
     class="com.sun.star.drawing.CustomShape"
     id="g7141"><g
       id="id25"><path
         d="M 7300,1756 H 5600 v -57 h 3400 v 57 z"
         id="path7136"
         inkscape:connector-curvature="0"
         style="fill:#729fcf;stroke:none" /><path
         d="M 7300,1756 H 5600 v -57 h 3400 v 57 z"
         id="path7138"
         inkscape:connector-curvature="0"
         style="fill:none;stroke:#3465a4" /></g></g><g
     class="com.sun.star.drawing.LineShape"
     id="g7146"><g
       id="id26"><path
         d="M 9500,4800 H 7200"
         id="path7143"
         inkscape:connector-curvature="0"
         style="fill:none;stroke:#3333ff;stroke-width:20;stroke-linejoin:round" /></g></g><g
     class="com.sun.star.drawing.LineShape"
     id="g7151"><g
       id="id27"><path
         d="M 7200,4800 V 4300"
         id="path7148"
         inkscape:connector-curvature="0"
         style="fill:none;stroke:#3333ff;stroke-width:20;stroke-linejoin:round" /></g></g><g
     class="com.sun.star.drawing.LineShape"
     id="g7156"><g
       id="id28" /></g><g
     class="com.sun.star.drawing.LineShape"
     id="g7161"><g
       id="id29" /></g><g
     class="Group"
     id="g7173"><g
       class="com.sun.star.drawing.CustomShape"
       id="g7166"><g
         id="id30" /></g><g
       class="com.sun.star.drawing.CustomShape"
       id="g7171"><g
         id="id31" /></g></g><g
     class="Group"
     id="g7185"><g
       class="com.sun.star.drawing.CustomShape"
       id="g7178"><g
         id="id32"><path
           d="m 7407,4399 h -293 v -689 h 586 v 689 z"
           id="path7175"
           inkscape:connector-curvature="0"
           style="fill:#729fcf;stroke:none" /></g></g><g
       class="com.sun.star.drawing.CustomShape"
       id="g7183"><g
         id="id33"><path
           d="m 7319,3826 h -88 v -230 h 176 v 230 z"
           id="path7180"
           inkscape:connector-curvature="0"
           style="fill:#729fcf;stroke:none" /></g></g></g><g
     class="com.sun.star.drawing.TextShape"
     id="g7196"><g
       id="id34" /></g><g
     class="com.sun.star.drawing.TextShape"
     id="g7207"><g
       id="id35"><text
   class="TextShape"
   id="text7204"><tspan
     class="TextParagraph"
     font-size="282px"
     font-weight="400"
     id="tspan7202"
     style="font-weight:400;font-size:282px;font-family:'Liberation Sans', sans-serif"><tspan
       class="TextPosition"
       x="5850"
       y="1583"
       id="tspan7200"><tspan
         id="tspan7198"
         style="fill:#000000;stroke:none">Projector screen</tspan></tspan></tspan></text>

</g></g><g
     class="com.sun.star.drawing.TextShape"
     id="g7218"><g
       id="id36" /></g><g
     class="com.sun.star.drawing.TextShape"
     id="g7229"><g
       id="id37"><text
   class="TextShape"
   id="text7226"><tspan
     class="TextParagraph"
     font-size="282px"
     font-weight="400"
     id="tspan7224"
     style="font-weight:400;font-size:282px;font-family:'Liberation Sans', sans-serif"><tspan
       class="TextPosition"
       x="5750"
       y="4814"
       id="tspan7222"><tspan
         id="tspan7220"
         style="fill:#000000;stroke:none">Projector</tspan></tspan></tspan><tspan
     class="TextParagraph"
     font-size="282px"
     font-weight="400"
     style="font-weight:400;font-size:282px;font-family:'Liberation Sans', sans-serif"
     id="tspan2474" /></text>

</g></g><g
     class="com.sun.star.drawing.TextShape"
     id="g7240"><g
       id="id38"><text
   class="TextShape"
   id="text7237"><tspan
     class="TextParagraph"
     font-size="282px"
     font-weight="400"
     id="tspan7235"
     style="font-weight:400;font-size:282px;font-family:'Liberation Sans', sans-serif"><tspan
       class="TextPosition"
       x="9550"
       y="3283"
       id="tspan7233"><tspan
         id="tspan7231"
         style="fill:#000000;stroke:none">Lectern</tspan></tspan></tspan></text>

</g></g><g
     class="com.sun.star.drawing.LineShape"
     id="g7245"><g
       id="id39"><path
         d="M 9600,7000 V 5900"
         id="path7242"
         inkscape:connector-curvature="0"
         style="fill:none;stroke:#00cc33;stroke-width:20;stroke-linejoin:round" /></g></g><g
     class="com.sun.star.drawing.LineShape"
     id="g7250"><g
       id="id40"><path
         d="M 6900,7300 H 9400"
         id="path7247"
         inkscape:connector-curvature="0"
         style="fill:none;stroke:#00cc33;stroke-width:20;stroke-linejoin:round" /></g></g><g
     class="com.sun.star.drawing.TextShape"
     id="g7374"><g
       id="id54"><text
   class="TextShape"
   id="text7371"><tspan
     class="TextParagraph"
     font-size="282px"
     font-weight="400"
     id="tspan7363"
     style="font-weight:400;font-size:282px;font-family:'Liberation Sans', sans-serif"><tspan
       class="TextPosition"
       x="5650"
       y="8096"
       id="tspan7361"><tspan
         id="tspan7359"
         style="fill:#000000;stroke:none">Presenter's</tspan></tspan></tspan><tspan
     class="TextParagraph"
     font-size="282px"
     font-weight="400"
     id="tspan7369"
     style="font-weight:400;font-size:282px;font-family:'Liberation Sans', sans-serif"><tspan
       class="TextPosition"
       x="5932"
       y="8414"
       id="tspan7367"><tspan
         id="tspan7365"
         style="fill:#000000;stroke:none">Laptop</tspan></tspan></tspan></text>

</g></g><g
     class="com.sun.star.drawing.CustomShape"
     id="g7383"><g
       id="id55"><path
         d="M 1400,3500 Z"
         id="path7378"
         inkscape:connector-curvature="0"
         style="fill:none;stroke:#dddddd" /><path
         d="M 4301,1799 Z"
         id="path7380"
         inkscape:connector-curvature="0"
         style="fill:none;stroke:#dddddd" /></g></g><g
     class="com.sun.star.drawing.CustomShape"
     id="g7392"><g
       id="id56"><path
         d="M 7279,3500 8701,1799 H 5800 Z"
         id="path7385"
         inkscape:connector-curvature="0"
         style="fill:none;stroke:#dddddd" /><path
         d="M 5800,3500 Z"
         id="path7387"
         inkscape:connector-curvature="0"
         style="fill:none;stroke:#dddddd" /><path
         d="M 8701,1799 Z"
         id="path7389"
         inkscape:connector-curvature="0"
         style="fill:none;stroke:#dddddd" /></g></g><g
     class="com.sun.star.drawing.OpenBezierShape"
     id="g7397"><g
       id="id57" /></g><g
     class="Group"
     id="g7424"><g
       class="com.sun.star.drawing.CustomShape"
       id="g7402"><g
         id="id58"><path
           d="m 15000,4799 c 227,0 400,157 400,363 0,206 -173,363 -400,363 -227,0 -400,-157 -400,-363 0,-206 173,-363 400,-363 z"
           id="path7399"
           inkscape:connector-curvature="0"
           style="fill:none;stroke:#00cc00;stroke-width:20;stroke-linejoin:round" /></g></g><g
       class="com.sun.star.drawing.LineShape"
       id="g7407"><g
         id="id59"><path
           d="M 15000,6254 V 5527"
           id="path7404"
           inkscape:connector-curvature="0"
           style="fill:none;stroke:#00cc00;stroke-width:20;stroke-linejoin:round" /></g></g><g
       class="com.sun.star.drawing.LineShape"
       id="g7412"><g
         id="id60"><path
           d="m 14600,5891 h 800"
           id="path7409"
           inkscape:connector-curvature="0"
           style="fill:none;stroke:#00cc00;stroke-width:20;stroke-linejoin:round" /></g></g><g
       class="com.sun.star.drawing.LineShape"
       id="g7417"><g
         id="id61"><path
           d="m 15000,6255 -400,545"
           id="path7414"
           inkscape:connector-curvature="0"
           style="fill:none;stroke:#00cc00;stroke-width:20;stroke-linejoin:round" /></g></g><g
       class="com.sun.star.drawing.LineShape"
       id="g7422"><g
         id="id62"><path
           d="m 15000,6255 400,545"
           id="path7419"
           inkscape:connector-curvature="0"
           style="fill:none;stroke:#00cc00;stroke-width:20;stroke-linejoin:round" /></g></g></g><g
     class="com.sun.star.drawing.TextShape"
     id="g7445"><g
       id="id63"><text
   class="TextShape"
   id="text7442"><tspan
     class="TextParagraph"
     font-size="282px"
     font-weight="400"
     id="tspan7434"
     style="font-weight:400;font-size:282px;font-family:'Liberation Sans', sans-serif"><tspan
       class="TextPosition"
       x="14134"
       y="4083"
       id="tspan7428"><tspan
         id="tspan7426"
         style="fill:#000000;stroke:none">VideoTeam </tspan></tspan><tspan
       class="TextPosition"
       x="14242"
       y="4401"
       id="tspan7432"><tspan
         id="tspan7430"
         style="fill:#000000;stroke:none">Volunteer</tspan></tspan></tspan><tspan
     class="TextParagraph"
     font-size="282px"
     font-weight="400"
     id="tspan7440"
     style="font-weight:400;font-size:282px;font-family:'Liberation Sans', sans-serif"><tspan
       class="TextPosition"
       x="13814"
       y="4719"
       id="tspan7438"><tspan
         id="tspan7436"
         style="fill:#000000;stroke:none">(Audience Cam)</tspan></tspan></tspan></text>

</g></g><g
     class="com.sun.star.drawing.LineShape"
     id="g7450"><g
       id="id64"><path
         d="M 10200,7600 V 8800"
         id="path7447"
         inkscape:connector-curvature="0"
         style="fill:none;stroke:#3333ff;stroke-width:20;stroke-linejoin:round" /></g></g><g
     class="com.sun.star.drawing.CustomShape"
     id="g7457"><g
       id="id65"><path
         d="m 9850,7800 h -650 v -800 h 1300 v 800 z"
         id="path7452"
         inkscape:connector-curvature="0"
         style="fill:#ccffcc;stroke:none" /><path
         d="m 9850,7800 h -650 v -800 h 1300 v 800 z"
         id="path7454"
         inkscape:connector-curvature="0"
         style="fill:none;stroke:#3465a4" /></g></g><g
     class="Group"
     id="g7484"
     transform="translate(0,-6297.0867)"><g
       class="com.sun.star.drawing.CustomShape"
       id="g7462"><g
         id="id66"><path
           d="m 7200,21399 c 227,0 400,157 400,363 0,206 -173,363 -400,363 -227,0 -400,-157 -400,-363 0,-206 173,-363 400,-363 z"
           id="path7459"
           inkscape:connector-curvature="0"
           style="fill:none;stroke:#00cc00;stroke-width:20;stroke-linejoin:round" /></g></g><g
       class="com.sun.star.drawing.LineShape"
       id="g7467"><g
         id="id67"><path
           d="m 7200,22854 v -727"
           id="path7464"
           inkscape:connector-curvature="0"
           style="fill:none;stroke:#00cc00;stroke-width:20;stroke-linejoin:round" /></g></g><g
       class="com.sun.star.drawing.LineShape"
       id="g7472"><g
         id="id68"><path
           d="m 6800,22491 h 800"
           id="path7469"
           inkscape:connector-curvature="0"
           style="fill:none;stroke:#00cc00;stroke-width:20;stroke-linejoin:round" /></g></g><g
       class="com.sun.star.drawing.LineShape"
       id="g7477"><g
         id="id69"><path
           d="m 7200,22855 -400,545"
           id="path7474"
           inkscape:connector-curvature="0"
           style="fill:none;stroke:#00cc00;stroke-width:20;stroke-linejoin:round" /></g></g><g
       class="com.sun.star.drawing.LineShape"
       id="g7482"><g
         id="id70"><path
           d="m 7200,22855 400,545"
           id="path7479"
           inkscape:connector-curvature="0"
           style="fill:none;stroke:#00cc00;stroke-width:20;stroke-linejoin:round" /></g></g></g><g
     class="Group"
     id="g7511"
     transform="translate(0,-6297.0867)"><g
       class="com.sun.star.drawing.CustomShape"
       id="g7489"><g
         id="id71"><path
           d="m 2496,19299 c 227,0 400,157 400,363 0,206 -173,363 -400,363 -227,0 -400,-157 -400,-363 0,-206 173,-363 400,-363 z"
           id="path7486"
           inkscape:connector-curvature="0"
           style="fill:none;stroke:#00cc00;stroke-width:20;stroke-linejoin:round" /></g></g><g
       class="com.sun.star.drawing.LineShape"
       id="g7494"><g
         id="id72"><path
           d="m 2496,20754 v -727"
           id="path7491"
           inkscape:connector-curvature="0"
           style="fill:none;stroke:#00cc00;stroke-width:20;stroke-linejoin:round" /></g></g><g
       class="com.sun.star.drawing.LineShape"
       id="g7499"><g
         id="id73"><path
           d="m 2096,20391 h 800"
           id="path7496"
           inkscape:connector-curvature="0"
           style="fill:none;stroke:#00cc00;stroke-width:20;stroke-linejoin:round" /></g></g><g
       class="com.sun.star.drawing.LineShape"
       id="g7504"><g
         id="id74"><path
           d="m 2496,20755 -400,545"
           id="path7501"
           inkscape:connector-curvature="0"
           style="fill:none;stroke:#00cc00;stroke-width:20;stroke-linejoin:round" /></g></g><g
       class="com.sun.star.drawing.LineShape"
       id="g7509"><g
         id="id75"><path
           d="m 2496,20755 400,545"
           id="path7506"
           inkscape:connector-curvature="0"
           style="fill:none;stroke:#00cc00;stroke-width:20;stroke-linejoin:round" /></g></g></g><g
     class="com.sun.star.drawing.TextShape"
     id="g7532"
     transform="translate(0,-6297.0867)"><g
       id="id76"><text
   class="TextShape"
   id="text7529"><tspan
     class="TextParagraph"
     font-size="282px"
     font-weight="400"
     id="tspan7521"
     style="font-weight:400;font-size:282px;font-family:'Liberation Sans', sans-serif"><tspan
       class="TextPosition"
       x="1884"
       y="21824"
       id="tspan7515"><tspan
         id="tspan7513"
         style="fill:#000000;stroke:none">VideoTeam </tspan></tspan><tspan
       class="TextPosition"
       x="1992"
       y="22142"
       id="tspan7519"><tspan
         id="tspan7517"
         style="fill:#000000;stroke:none">Volunteer</tspan></tspan></tspan><tspan
     class="TextParagraph"
     font-size="282px"
     font-weight="400"
     id="tspan7527"
     style="font-weight:400;font-size:282px;font-family:'Liberation Sans', sans-serif"><tspan
       class="TextPosition"
       x="1850"
       y="22460"
       id="tspan7525"><tspan
         id="tspan7523"
         style="fill:#000000;stroke:none">(Main Cam)</tspan></tspan></tspan></text>

</g></g><g
     class="com.sun.star.drawing.TextShape"
     id="g7553"
     transform="translate(0,-6297.0867)"><g
       id="id77"><text
   class="TextShape"
   id="text7550"><tspan
     class="TextParagraph"
     font-size="282px"
     font-weight="400"
     id="tspan7542"
     style="font-weight:400;font-size:282px;font-family:'Liberation Sans', sans-serif"><tspan
       class="TextPosition"
       x="6450"
       y="23978"
       id="tspan7536"><tspan
         id="tspan7534"
         style="fill:#000000;stroke:none">VideoTeam </tspan></tspan><tspan
       class="TextPosition"
       x="6558"
       y="24296"
       id="tspan7540"><tspan
         id="tspan7538"
         style="fill:#000000;stroke:none">Volunteer</tspan></tspan></tspan><tspan
     class="TextParagraph"
     font-size="282px"
     font-weight="400"
     id="tspan7548"
     style="font-weight:400;font-size:282px;font-family:'Liberation Sans', sans-serif"><tspan
       class="TextPosition"
       x="6567"
       y="24614"
       id="tspan7546"><tspan
         id="tspan7544"
         style="fill:#000000;stroke:none">(Director)</tspan></tspan></tspan></text>

</g></g><g
     class="Group"
     id="g7576"
     transform="translate(0,-6297.0867)"><g
       class="com.sun.star.drawing.LineShape"
       id="g7569"><g
         id="id79"><path
           d="M 7900,19283.913 H 9600"
           id="path7566"
           inkscape:connector-curvature="0"
           style="fill:none;stroke:#c5000b;stroke-width:20;stroke-linejoin:round"
           sodipodi:nodetypes="cc" /></g></g><g
       class="com.sun.star.drawing.LineShape"
       id="g7574"><g
         id="id80"><path
           d="m 9600,17700 v 1583.913"
           id="path7571"
           inkscape:connector-curvature="0"
           style="fill:none;stroke:#c5000b;stroke-width:20;stroke-linejoin:round;stroke-miterlimit:4;stroke-dasharray:none"
           sodipodi:nodetypes="cc" /></g></g></g><g
     class="Group"
     id="g7598"><g
       class="com.sun.star.drawing.LineShape"
       id="g7581"><g
         id="id81"><path
           d="m 10400,8700 h 5300"
           id="path7578"
           inkscape:connector-curvature="0"
           style="fill:none;stroke:#c5000b;stroke-width:20;stroke-linejoin:round" /></g></g><g
       class="com.sun.star.drawing.LineShape"
       id="g7586"><g
         id="id82"><path
           d="M 15700,12061.663 V 8700"
           id="path7583"
           inkscape:connector-curvature="0"
           style="fill:none;stroke:#c5000b;stroke-width:20;stroke-linejoin:round"
           sodipodi:nodetypes="cc" /></g></g><g
       class="com.sun.star.drawing.LineShape"
       id="g7591"
       transform="translate(0,-6138.3366)"><g
         id="id83"><path
           d="m 11094,17600 v 600"
           id="path7588"
           inkscape:connector-curvature="0"
           style="fill:none;stroke:#c5000b;stroke-width:20;stroke-linejoin:round" /></g></g><g
       class="com.sun.star.drawing.LineShape"
       id="g7596"
       transform="translate(0,-6138.3366)"><g
         id="id84"><path
           d="m 11094,18200 h 4606"
           id="path7593"
           inkscape:connector-curvature="0"
           style="fill:none;stroke:#c5000b;stroke-width:20;stroke-linejoin:round" /></g></g></g><g
     class="com.sun.star.drawing.LineShape"
     id="g7603"><g
       id="id85"><path
         d="M 16100,12261.663 V 7300"
         id="path7600"
         inkscape:connector-curvature="0"
         style="fill:none;stroke:#c5000b;stroke-width:20;stroke-linejoin:round"
         sodipodi:nodetypes="cc" /></g></g><g
     class="com.sun.star.drawing.LineShape"
     id="g7608"
     transform="translate(0,-6138.3366)"><g
       id="id86"><path
         d="m 10900,18400 h 5200"
         id="path7605"
         inkscape:connector-curvature="0"
         style="fill:none;stroke:#c5000b;stroke-width:20;stroke-linejoin:round" /></g></g><g
     class="com.sun.star.drawing.LineShape"
     id="g7613"
     transform="translate(0,-6138.3366)"><g
       id="id87"><path
         d="m 10900,17600 v 800"
         id="path7610"
         inkscape:connector-curvature="0"
         style="fill:none;stroke:#c5000b;stroke-width:20;stroke-linejoin:round" /></g></g><g
     class="com.sun.star.drawing.CustomShape"
     id="g7620"
     transform="translate(0,-6297.0867)"><g
       id="id88"><path
         d="M 10500,17758 H 9300 v -559 h 2400 v 559 z"
         id="path7615"
         inkscape:connector-curvature="0"
         style="fill:#ccffcc;stroke:none" /><path
         d="M 10500,17758 H 9300 v -559 h 2400 v 559 z"
         id="path7617"
         inkscape:connector-curvature="0"
         style="fill:none;stroke:#3465a4" /></g></g><g
     class="com.sun.star.drawing.TextShape"
     id="g7679"
     transform="translate(-5759.9334,-12771.455)"><g
       id="id95"><text
   class="TextShape"
   id="text7676"><tspan
     class="TextParagraph"
     font-size="282px"
     font-weight="400"
     id="tspan7674"
     style="font-weight:400;font-size:282px;font-family:'Liberation Sans', sans-serif"><tspan
       class="TextPosition"
       x="12350"
       y="22914"
       id="tspan7672"><tspan
         id="tspan7670"
         style="fill:#000000;stroke:none">Sound Mixer</tspan></tspan></tspan></text>

</g></g><g
     class="Group"
     id="g7701"
     transform="translate(0,-6297.0867)"><g
       class="com.sun.star.drawing.LineShape"
       id="g7689"><g
         id="id97"
         transform="matrix(0.14169124,0,0,1,4703.532,0)"><path
           d="M 13300,16500 H 5480"
           id="path7686"
           inkscape:connector-curvature="0"
           style="fill:none;stroke:#00331a;stroke-width:20;stroke-linejoin:round" /></g></g><g
       class="com.sun.star.drawing.LineShape"
       id="g7694"><g
         id="id98"><path
           d="m 5480,16500 v 2285"
           id="path7691"
           inkscape:connector-curvature="0"
           style="fill:none;stroke:#00331a;stroke-width:20;stroke-linejoin:round" /></g></g><g
       class="com.sun.star.drawing.LineShape"
       id="g7699"><g
         id="id99"><path
           d="M 5480,18785 H 5000"
           id="path7696"
           inkscape:connector-curvature="0"
           style="fill:none;stroke:#00331a;stroke-width:20;stroke-linejoin:round" /></g></g></g><g
     class="Group"
     id="g7723"
     transform="translate(0,-6297.0867)"><g
       class="com.sun.star.drawing.LineShape"
       id="g7706" /><g
       class="com.sun.star.drawing.LineShape"
       id="g7711"
       transform="matrix(0.15453709,0,0,1,4464.8897,0)"><g
         id="id101"><path
           d="M 13700,16200 H 5281"
           id="path7708"
           inkscape:connector-curvature="0"
           style="fill:none;stroke:#00331a;stroke-width:20;stroke-linejoin:round" /></g></g><g
       class="com.sun.star.drawing.LineShape"
       id="g7716"><g
         id="id102"><path
           d="m 5281,16200 v 2311"
           id="path7713"
           inkscape:connector-curvature="0"
           style="fill:none;stroke:#00331a;stroke-width:20;stroke-linejoin:round" /></g></g><g
       class="com.sun.star.drawing.LineShape"
       id="g7721"><g
         id="id103"><path
           d="M 5281,18511 H 5000"
           id="path7718"
           inkscape:connector-curvature="0"
           style="fill:none;stroke:#00331a;stroke-width:20;stroke-linejoin:round" /></g></g></g><g
     class="com.sun.star.drawing.TextShape"
     id="g7564"
     transform="translate(83.008191,-5819.7894)"><g
       id="id78"><text
   class="TextShape"
   id="text7561"><tspan
     class="TextParagraph"
     font-size="282px"
     font-weight="400"
     id="tspan7559"
     style="font-weight:400;font-size:282px;font-family:'Liberation Sans', sans-serif"><tspan
       class="TextPosition"
       x="9550"
       y="17083"
       id="tspan7557"><tspan
         id="tspan7555"
         style="fill:#000000;stroke:none">Gigabit switch</tspan></tspan></tspan></text>

</g></g><g
     class="com.sun.star.drawing.OpenBezierShape"
     id="g7728"
     transform="translate(0,-6297.0867)"><g
       id="id104"><path
         d="m 4991,18502 c -29,8 -59,5 -86,14 -27,9 -58,13 -85,17 -29,4 -60,2 -88,3 -29,1 -59,6 -87,5 -28,-2 -55,3 -83,3 -29,0 -58,3 -86,2 -28,1 -59,2 -86,1 -29,-1 -58,-7 -84,-17 -28,-12 -61,-9 -86,-28 l -11,-2"
         id="path7725"
         inkscape:connector-curvature="0"
         style="fill:none;stroke:#00331a;stroke-width:20;stroke-linejoin:round" /></g></g><g
     class="com.sun.star.drawing.OpenBezierShape"
     id="g7733"
     transform="translate(0,-6297.0867)"><g
       id="id105"><path
         d="m 5000,18798 c -30,1 -56,18 -84,22 -30,4 -62,12 -92,14 -30,1 -61,3 -89,5 -30,1 -61,1 -89,3 -29,2 -56,-5 -84,-5 -29,0 -58,-9 -86,-12 -31,-4 -60,-16 -86,-27 -29,-13 -56,-32 -87,-39 -35,-9 -65,-30 -97,-42 -32,-12 -53,-43 -84,-56 l -2,-4"
         id="path7730"
         inkscape:connector-curvature="0"
         style="fill:none;stroke:#00331a;stroke-width:20;stroke-linejoin:round" /></g></g><g
     class="Group"
     id="g7753"
     transform="translate(0,-6297.0867)"><g
       class="com.sun.star.drawing.CustomShape"
       id="g7740"><g
         id="id106"><path
           d="m 4157,18690 -91,446 -487,-100 183,-892 487,100 z"
           id="path7735"
           inkscape:connector-curvature="0"
           style="fill:#ccffcc;stroke:none" /><path
           d="m 4157,18690 -91,446 -487,-100 183,-892 487,100 z"
           id="path7737"
           inkscape:connector-curvature="0"
           style="fill:none;stroke:#3465a4" /></g></g><g
       class="com.sun.star.drawing.CustomShape"
       id="g7751"><g
         id="id107"><path
           d="m 3812,17899 488,101 -161,222 -267,-55 z m 0,0 z m 438,346 z"
           id="path7742"
           inkscape:connector-curvature="0"
           style="fill:#ccffcc;stroke:none" /><path
           d="m 3812,17899 488,101 -161,222 -267,-55 z"
           id="path7744"
           inkscape:connector-curvature="0"
           style="fill:none;stroke:#3465a4" /><path
           d="M 3812,17899 Z"
           id="path7746"
           inkscape:connector-curvature="0"
           style="fill:none;stroke:#3465a4" /><path
           d="M 4250,18245 Z"
           id="path7748"
           inkscape:connector-curvature="0"
           style="fill:none;stroke:#3465a4" /></g></g></g><g
     class="com.sun.star.drawing.CustomShape"
     id="g8140"><g
       id="id154"><path
         d="m 6450,7800 h -650 v -800 h 1300 v 800 z"
         id="path8135"
         inkscape:connector-curvature="0"
         style="fill:#ff9999;stroke:none" /><path
         d="m 6450,7800 h -650 v -800 h 1300 v 800 z"
         id="path8137"
         inkscape:connector-curvature="0"
         style="fill:none;stroke:#ff3300" /></g></g><g
     class="com.sun.star.drawing.CustomShape"
     id="g8147"><g
       id="id155"><path
         d="m 9850,9300 h -650 v -800 h 1300 v 800 z"
         id="path8142"
         inkscape:connector-curvature="0"
         style="fill:#ccffcc;stroke:none" /><path
         d="m 9850,9300 h -650 v -800 h 1300 v 800 z"
         id="path8144"
         inkscape:connector-curvature="0"
         style="fill:none;stroke:#3465a4" /></g></g><g
     class="com.sun.star.drawing.LineShape"
     id="g8152"><g
       id="id156"><path
         d="m 16100,7300 h 4000"
         id="path8149"
         inkscape:connector-curvature="0"
         style="fill:none;stroke:#c5000b;stroke-width:20;stroke-linejoin:round"
         sodipodi:nodetypes="cc" /></g></g><g
     class="com.sun.star.drawing.CustomShape"
     id="g8159"><g
       id="id157" /></g><g
     class="com.sun.star.drawing.CustomShape"
     id="g8166"><g
       id="id158"><path
         d="M 10000,6100 H 9200 V 3400 h 1600 v 2700 z"
         id="path8161"
         inkscape:connector-curvature="0"
         style="fill:#729fcf;stroke:none" /><path
         d="M 10000,6100 H 9200 V 3400 h 1600 v 2700 z"
         id="path8163"
         inkscape:connector-curvature="0"
         style="fill:none;stroke:#3465a4" /></g></g><g
     class="com.sun.star.drawing.TextShape"
     id="g8328"
     transform="translate(-6075.0002,-6575.8912)"><g
       id="id172"><text
   class="TextShape"
   id="text8325"><tspan
     class="TextParagraph"
     font-size="212px"
     font-weight="400"
     id="tspan8323"
     style="font-weight:400;font-size:212px;font-family:'Liberation Sans', sans-serif"><tspan
       class="TextPosition"
       x="11850"
       y="16416"
       id="tspan8321"><tspan
         id="tspan8319"
         style="fill:#000000;stroke:none">XLR</tspan></tspan></tspan></text>

</g></g><g
     class="com.sun.star.drawing.TextShape"
     id="g8339"
     transform="translate(-6075.0002,-6575.8912)"><g
       id="id173"><text
   class="TextShape"
   id="text8336"><tspan
     class="TextParagraph"
     font-size="212px"
     font-weight="400"
     id="tspan8334"
     style="font-weight:400;font-size:212px;font-family:'Liberation Sans', sans-serif"><tspan
       class="TextPosition"
       x="11850"
       y="16716"
       id="tspan8332"><tspan
         id="tspan8330"
         style="fill:#000000;stroke:none">XLR</tspan></tspan></tspan></text>

</g></g><g
     class="com.sun.star.drawing.TextShape"
     id="g8361"><g
       id="id175" /></g><g
     class="com.sun.star.drawing.CustomShape"
     id="g8475"
     transform="translate(0,-6297.0867)"><g
       id="id189"><path
         d="m 7100,19958 h -900 v -1359 h 1800 v 1359 z"
         id="path8470"
         inkscape:connector-curvature="0"
         style="fill:#ccffcc;stroke:none" /><path
         d="m 7100,19958 h -900 v -1359 h 1800 v 1359 z"
         id="path8472"
         inkscape:connector-curvature="0"
         style="fill:none;stroke:#3465a4" /></g></g><g
     class="com.sun.star.drawing.TextShape"
     id="g8486"><g
       id="id190" /></g><g
     class="com.sun.star.drawing.TextShape"
     id="g8497"
     transform="translate(0,-6297.0867)"><g
       id="id191"><text
   class="TextShape"
   id="text8494"
   y="899.58344"><tspan
     class="TextParagraph"
     font-size="282px"
     font-weight="400"
     id="tspan8492"
     style="font-weight:400;font-size:282px;font-family:'Liberation Sans', sans-serif"><tspan
       class="TextPosition"
       x="6250"
       y="19395.572"
       id="tspan8490"><tspan
         id="tspan8488"
         style="fill:#000000;stroke:none">Voctomix PC</tspan></tspan></tspan></text>

</g></g><g
     class="com.sun.star.drawing.TextShape"
     id="g8519"><g
       id="id193" /></g><g
     class="com.sun.star.drawing.TextShape"
     id="g8530"><g
       id="id194"><text
   class="TextShape"
   id="text8527"><tspan
     class="TextParagraph"
     font-size="212px"
     font-weight="400"
     id="tspan8525"
     style="font-weight:400;font-size:212px;font-family:'Liberation Sans', sans-serif"><tspan
       class="TextPosition"
       x="10559"
       y="9016"
       id="tspan8523"><tspan
         id="tspan8521"
         style="fill:#000000;stroke:none" /></tspan></tspan></text>

</g></g><g
     class="com.sun.star.drawing.TextShape"
     id="g8541"
     transform="translate(0,-6297.0867)"><g
       id="id195"><text
   class="TextShape"
   id="text8538"><tspan
     class="TextParagraph"
     font-size="282px"
     font-weight="400"
     id="tspan8536"
     style="font-weight:400;font-size:282px;font-family:'Liberation Sans', sans-serif"><tspan
       class="TextPosition"
       x="1750"
       y="17496"
       id="tspan8534"><tspan
         id="tspan8532"
         style="fill:#000000;stroke:none">Main Camera</tspan></tspan></tspan></text>

</g></g><g
     class="com.sun.star.drawing.TextShape"
     id="g8552"><g
       id="id196"><text
   class="TextShape"
   id="text8549"><tspan
     class="TextParagraph"
     font-size="282px"
     font-weight="400"
     id="tspan8547"
     style="font-weight:400;font-size:282px;font-family:'Liberation Sans', sans-serif"><tspan
       class="TextPosition"
       x="11750"
       y="5283"
       id="tspan8545"><tspan
         id="tspan8543"
         style="fill:#000000;stroke:none">Audience Camera</tspan></tspan></tspan></text>

</g></g><g
     class="com.sun.star.drawing.TextShape"
     id="g8563"><g
       id="id197" /></g><g
     class="com.sun.star.drawing.TextShape"
     id="g8574"><g
       id="id198" /></g><g
     class="Group"
     id="g8594"><g
       class="com.sun.star.drawing.CustomShape"
       id="g8581"><g
         id="id199"><path
           d="m 13415,6947 205,-407 444,223 -409,814 -444,-223 z"
           id="path8576"
           inkscape:connector-curvature="0"
           style="fill:#ccffcc;stroke:none" /><path
           d="m 13415,6947 205,-407 444,223 -409,814 -444,-223 z"
           id="path8578"
           inkscape:connector-curvature="0"
           style="fill:none;stroke:#3465a4" /></g></g><g
       class="com.sun.star.drawing.CustomShape"
       id="g8592"><g
         id="id200"><path
           d="m 13544,7800 -445,-223 214,-173 244,123 z m 0,0 z m -332,-446 z"
           id="path8583"
           inkscape:connector-curvature="0"
           style="fill:#ccffcc;stroke:none" /><path
           d="m 13544,7800 -445,-223 214,-173 244,123 z"
           id="path8585"
           inkscape:connector-curvature="0"
           style="fill:none;stroke:#3465a4" /><path
           d="M 13544,7800 Z"
           id="path8587"
           inkscape:connector-curvature="0"
           style="fill:none;stroke:#3465a4" /><path
           d="M 13212,7354 Z"
           id="path8589"
           inkscape:connector-curvature="0"
           style="fill:none;stroke:#3465a4" /></g></g></g><g
     class="com.sun.star.drawing.TextShape"
     id="g8605"
     transform="translate(-83.008191,-41.504095)"><g
       id="id201"><text
   class="TextShape"
   id="text8602"><tspan
     class="TextParagraph"
     font-size="212px"
     font-weight="400"
     id="tspan8600"
     style="font-weight:400;font-size:212px;font-family:'Liberation Sans', sans-serif"><tspan
       class="TextPosition"
       x="10369"
       y="8227"
       id="tspan8598"><tspan
         id="tspan8596"
         style="fill:#000000;stroke:none">USB</tspan></tspan></tspan></text>

</g></g><g
     class="com.sun.star.drawing.TextShape"
     id="g8616"
     transform="translate(498.04915,-581.05734)"><g
       id="id202"><text
   class="TextShape"
   id="text8613"><tspan
     class="TextParagraph"
     font-size="282px"
     font-weight="400"
     id="tspan8611"
     style="font-weight:400;font-size:282px;font-family:'Liberation Sans', sans-serif"><tspan
       class="TextPosition"
       x="8750"
       y="9596"
       id="tspan8609"><tspan
         id="tspan8607"
         style="fill:#000000;stroke:none">Opsis PC</tspan></tspan></tspan></text>

</g></g><g
     class="com.sun.star.drawing.TextShape"
     id="g8627"
     transform="translate(-1162.1147,20.752048)"><g
       id="id203"><text
   class="TextShape"
   id="text8624"><tspan
     class="TextParagraph"
     font-size="282px"
     font-weight="400"
     id="tspan8622"
     style="font-weight:400;font-size:282px;font-family:'Liberation Sans', sans-serif"><tspan
       class="TextPosition"
       x="10550"
       y="7483"
       id="tspan8620"><tspan
         id="tspan8618"
         style="fill:#000000;stroke:none">OPSIS</tspan></tspan></tspan></text>

</g></g><g
     class="com.sun.star.drawing.TextShape"
     id="g8638"><g
       id="id204"><text
   class="TextShape"
   id="text8635"><tspan
     class="TextParagraph"
     font-size="212px"
     font-weight="400"
     id="tspan8633"
     style="font-weight:400;font-size:212px;font-family:'Liberation Sans', sans-serif"><tspan
       class="TextPosition"
       x="9763"
       y="6616"
       id="tspan8631"><tspan
         id="tspan8629"
         style="fill:#000000;stroke:none">HDMI</tspan></tspan></tspan></text>

</g></g><g
     class="com.sun.star.drawing.TextShape"
     id="g8661"><g
       id="id205"><text
   class="TextShape"
   id="text8658"
   x="408.96283"
   y="358.64697"><tspan
     class="TextParagraph"
     font-size="212px"
     font-weight="400"
     id="tspan8644"
     style="font-weight:400;font-size:212px;font-family:'Liberation Sans', sans-serif"><tspan
       class="TextPosition"
       x="7758.9629"
       y="7109.647"
       id="tspan8642"
       style="fill:#000000;stroke:none">HDMI</tspan></tspan></text>

<text
   class="TextShape"
   id="text2462"
   x="-36.684784"
   y="80.706528"><tspan
     class="TextParagraph"
     font-size="212px"
     font-weight="400"
     style="font-weight:400;font-size:212px;font-family:'Liberation Sans', sans-serif"
     id="tspan2464"><tspan
       class="TextPosition"
       x="7313.3149"
       y="6831.7065"
       style="fill:#000000;stroke:none"
       id="tspan2466" /></tspan></text>

<flowRoot
   xml:space="preserve"
   id="flowRoot2474"
   style="font-style:normal;font-weight:normal;font-size:40px;line-height:1.25;font-family:sans-serif;letter-spacing:0px;word-spacing:0px;fill:#000000;fill-opacity:1;stroke:none"><flowRegion
     id="flowRegion2476"><rect
       id="rect2478"
       width="48.991737"
       height="41.156887"
       x="3.9216468"
       y="91.126579" /></flowRegion><flowPara
     id="flowPara2480" /></flowRoot></g></g><g
     class="com.sun.star.drawing.TextShape"
     id="g8700"><g
       id="id208"><text
   class="TextShape"
   id="text8697"
   x="-1141.3627"
   y="-20.752047"><tspan
     class="TextParagraph"
     font-size="635px"
     font-weight="400"
     id="tspan8689"
     style="font-weight:400;font-size:635px;font-family:'Liberation Sans', sans-serif"><tspan
       class="TextPosition"
       x="15691.638"
       y="2180.248"
       id="tspan8687"
       style="fill:#000000;stroke:none">Default Room</tspan></tspan></text>

<text
   xml:space="preserve"
   style="font-style:normal;font-weight:normal;font-size:1058.33337402px;line-height:1.25;font-family:sans-serif;letter-spacing:0px;word-spacing:0px;fill:#000000;fill-opacity:1;stroke:none;stroke-width:746.70709229"
   x="17722.248"
   y="1975.2645"
   id="text2461"><tspan
     sodipodi:role="line"
     id="tspan2459"
     x="17722.248"
     y="2911.6416"
     style="stroke-width:746.70709229" /></text>

</g></g><g
     class="com.sun.star.drawing.TextShape"
     id="g8729"><g
       id="id209" /></g><g
     class="com.sun.star.drawing.TextShape"
     id="g8847"><g
       id="id211" /></g><g
     class="com.sun.star.drawing.TextShape"
     id="g8876"><g
       id="id212" /></g><g
     class="com.sun.star.drawing.TextShape"
     id="g8899"><g
       id="id213" /></g><g
     class="com.sun.star.drawing.TextShape"
     id="g9130"><g
       id="id240"><text
   class="TextShape"
   id="text9127"><tspan
     class="TextParagraph"
     font-size="212px"
     font-weight="400"
     id="tspan9125"
     style="font-weight:400;font-size:212px;font-family:'Liberation Sans', sans-serif"><tspan
       class="TextPosition"
       x="17150"
       y="7227"
       id="tspan9123"><tspan
         id="tspan9121"
         style="fill:#000000;stroke:none">DHCP – Gigabit feed out</tspan></tspan></tspan></text>

</g></g></g><text
   xml:space="preserve"
   style="font-style:normal;font-weight:normal;font-size:211.66665649px;line-height:200px;font-family:sans-serif;text-align:start;letter-spacing:0px;word-spacing:0px;text-anchor:start;fill:#000000;fill-opacity:1;stroke:none;stroke-width:746.70709229"
   x="4754.3477"
   y="13365.98"
   id="text8306"><tspan
     sodipodi:role="line"
     id="tspan8304"
     x="4754.3477"
     y="13365.98"
     style="stroke-width:746.70709229">SDI 5m</tspan></text>

</g><text
   xml:space="preserve"
   style="font-style:normal;font-weight:normal;font-size:352.777771px;line-height:200px;font-family:sans-serif;text-align:start;letter-spacing:0px;word-spacing:0px;text-anchor:start;fill:#000000;fill-opacity:1;stroke:none;stroke-width:746.70709229"
   x="10353.095"
   y="4129.8359"
   id="text8276"><tspan
     sodipodi:role="line"
     id="tspan8274"
     x="10353.095"
     y="4129.8359"
     style="font-size:211.66667175px;line-height:200px;text-align:start;text-anchor:start;stroke-width:746.70709229">DebConf Camera</tspan><tspan
     sodipodi:role="line"
     x="10353.095"
     y="4366.4917"
     style="font-size:211.66667175px;line-height:200px;text-align:start;text-anchor:start;stroke-width:746.70709229"
     id="tspan8281">DebConf Tripod</tspan></text>

<text
   xml:space="preserve"
   style="font-style:normal;font-weight:normal;font-size:282.222229px;line-height:200px;font-family:sans-serif;text-align:start;letter-spacing:0px;word-spacing:0px;text-anchor:start;fill:#000000;fill-opacity:1;stroke:none;stroke-width:746.70709229"
   x="4777.7173"
   y="12574.263"
   id="text8285"><tspan
     sodipodi:role="line"
     x="4777.7173"
     y="12574.263"
     style="font-size:211.66667175px;line-height:200px;stroke-width:746.70709229"
     id="tspan8287">Voctomix</tspan><tspan
     sodipodi:role="line"
     x="4777.7173"
     y="12792.591"
     style="font-size:211.66667175px;line-height:200px;stroke-width:746.70709229"
     id="tspan8289">2 BlackMagic Decklink SDI PCIe Card</tspan><tspan
     sodipodi:role="line"
     x="4777.7173"
     y="13010.919"
     style="font-size:211.66667175px;line-height:200px;stroke-width:746.70709229"
     id="tspan8292">Gigabit Ethernet</tspan></text>

<text
   xml:space="preserve"
   style="font-style:normal;font-weight:normal;font-size:211.66665649px;line-height:200px;font-family:sans-serif;text-align:start;letter-spacing:0px;word-spacing:0px;text-anchor:start;fill:#000000;fill-opacity:1;stroke:none;stroke-width:746.70709229"
   x="331.52185"
   y="10079.65"
   id="text8296"><tspan
     sodipodi:role="line"
     id="tspan8294"
     x="331.52185"
     y="10079.65"
     style="stroke-width:746.70709229">DebConf Camera</tspan><tspan
     sodipodi:role="line"
     x="331.52185"
     y="10279.65"
     style="stroke-width:746.70709229"
     id="tspan8300">DebConf Tripod</tspan><tspan
     sodipodi:role="line"
     x="331.52185"
     y="10479.65"
     style="stroke-width:746.70709229"
     id="tspan29195">Audio L/R in</tspan></text>

<path
   style="fill:none;stroke:#00cc33;stroke-width:20;stroke-linecap:butt;stroke-linejoin:miter;stroke-miterlimit:4;stroke-dasharray:none;stroke-opacity:1"
   d="m 12393.478,5811.5569 h 2142.391 V 11886.589 H 6614.3317"
   id="path8311"
   inkscape:connector-curvature="0"
   sodipodi:nodetypes="cccc" /><text
   xml:space="preserve"
   style="font-style:normal;font-weight:normal;font-size:211.66665649px;line-height:200px;font-family:sans-serif;text-align:start;letter-spacing:0px;word-spacing:0px;text-anchor:start;fill:#000000;fill-opacity:1;stroke:none;stroke-width:746.70709229"
   x="11601.087"
   y="8043.0972"
   id="text8319"><tspan
     sodipodi:role="line"
     id="tspan8317"
     x="11601.087"
     y="8043.0972"
     style="stroke-width:746.70709229">SDI</tspan></text>

</svg>